[
  {
    "name": "APUE",
    "filename": "apue.mp3",
    "filesize": 45974,
    "duration": 1.1
  },
  {
    "name": "Are you gaming",
    "filename": "areya.mp3",
    "filesize": 19166,
    "duration": 1.26
  },
  {
    "name": "Ko~ ko~ da~ yoo~",
    "filename": "Definitely_not_the_ringtone.mp3",
    "filesize": 38961,
    "duration": 3.12
  },
  {
    "name": "Background scream",
    "filename": "fujoshi_screaming.mp3",
    "filesize": 77130,
    "duration": 2.76
  },
  {
    "name": "Haa~",
    "filename": "haa.mp3",
    "filesize": 20604,
    "duration": 1.59
  },
  {
    "name": "Pikachu",
    "filename": "hana.mp3",
    "filesize": 41560,
    "duration": 2.43
  },
  {
    "name": "a",
    "filename": "hana-a.mp3",
    "filesize": 13512,
    "duration": 0.61
  },
  {
    "name": "\u26a0 Very quiet stream",
    "filename": "hana_angelic_voice.mp3",
    "filesize": 152280,
    "duration": 9.48
  },
  {
    "name": "A pa pue",
    "filename": "HanaApue.mp3",
    "filesize": 247934,
    "duration": 10.27
  },
  {
    "name": "Baka Mitai",
    "filename": "HanaBakaMitai.mp3",
    "filesize": 849469,
    "duration": 30.34
  },
  {
    "name": "BGM",
    "filename": "hana_bgm_5_minute_loop.mp3",
    "filesize": 5644317,
    "duration": 314.88
  },
  {
    "name": "Hana going primal",
    "filename": "hana-going_primal.mp3",
    "filesize": 162021,
    "duration": 9.23
  },
  {
    "name": "Ohayo",
    "filename": "hanakaguya.mp3",
    "filesize": 112503,
    "duration": 5.64
  },
  {
    "name": "pp",
    "filename": "HanaPeePee.mp3",
    "filesize": 310773,
    "duration": 12.03
  },
  {
    "name": "uh hu hu",
    "filename": "hana-tf_is_that_sound.mp3",
    "filesize": 19193,
    "duration": 1.04
  },
  {
    "name": "Threat",
    "filename": "HanaThreat.mp3",
    "filesize": 299790,
    "duration": 12.38
  },
  {
    "name": "Yandere",
    "filename": "hana_yandere_stream_rip.mp3",
    "filesize": 1204766,
    "duration": 30.07
  },
  {
    "name": "Meat",
    "filename": "Hanyot_Meat.mp3",
    "filesize": 20212,
    "duration": 0.86
  },
  {
    "name": "Booty",
    "filename": "Hanyot_Trim.mp3",
    "filesize": 67818,
    "duration": 2.78
  },
  {
    "name": "Harry Tea",
    "filename": "Harry_Macchia_tea.mp3",
    "filesize": 123498,
    "duration": 3.79
  },
  {
    "name": "Monki",
    "filename": "MonkiTogetherStronk.mp3",
    "filesize": 143725,
    "duration": 5.43
  },
  {
    "name": "Seiso",
    "filename": "seiso.mp3",
    "filesize": 197484,
    "duration": 4.88
  },
  {
    "name": "Why are we here",
    "filename": "whywearestillherejusttosuffer.wav",
    "filesize": 1123458,
    "duration": 2.93
  },
  {
    "name": "Panicking nya",
    "filename": "panicking_nya.wav",
    "filesize": 1080252,
    "duration": 5.63
  },
  {
    "name": "Sad nya",
    "filename": "sad_nya.wav",
    "filesize": 1502716,
    "duration": 7.83
  },
  {
    "name": "Sayang",
    "filename": "sayang.wav",
    "filesize": 211500,
    "duration": 1.2
  },
  {
    "name": "Aaaah",
    "filename": "ah.wav",
    "filesize": 171716,
    "duration": 0.97
  },
  {
    "name": "Stealth",
    "filename": "hanastealfy.wav",
    "filesize": 2242538,
    "duration": 6.36
  },
  {
    "name": "Winmeal",
    "filename": "hanawinmeal.wav",
    "filesize": 372478,
    "duration": 2.11
  },
  {
    "name": "Whoa",
    "filename": "whoa.wav",
    "filesize": 163428,
    "duration": 0.85
  },
  {
    "name": "Good noodle",
    "filename": "20200909_good_noodle.wav",
    "filesize": 2793256,
    "duration": 15.83
  },
  {
    "name": "Thank you",
    "filename": "thankyou.wav",
    "filesize": 2930100,
    "duration": 16.61
  },
  {
    "name": "Flashlight",
    "filename": "flashlight.wav",
    "filesize": 848538,
    "duration": 2.21
  },
  {
    "name": "Otsu",
    "filename": "otsukaresama.wav",
    "filesize": 1354594,
    "duration": 3.53
  },
  {
    "name": "Hanyot",
    "filename": "hanyot.wav",
    "filesize": 364182,
    "duration": 2.06
  },
  {
    "name": "heeeyyyyy",
    "filename": "heeeyyyyy.wav",
    "filesize": 194604,
    "duration": 1.1
  },
  {
    "name": "plung",
    "filename": "plung.wav",
    "filesize": 141340,
    "duration": 0.8
  },
  {
    "name": "pp hurt",
    "filename": "pphurt2.wav",
    "filesize": 413740,
    "duration": 2.35
  },
  {
    "name": "fuck you buddy",
    "filename": "fuckyoubuddy.wav",
    "filesize": 634924,
    "duration": 3.6
  },
  {
    "name": "bonk",
    "filename": "bonk.wav",
    "filesize": 95806,
    "duration": 0.5
  },
  {
    "name": "itai",
    "filename": "DSOOF.wav",
    "filesize": 54376,
    "duration": 0.31
  },
  {
    "name": "whoawhoawho",
    "filename": "DSPLPAIN.wav",
    "filesize": 313332,
    "duration": 1.78
  },
  {
    "name": "This is a Wendy's",
    "filename": "20201013-015204 wendy.mp3",
    "filesize": 173952,
    "duration": 10.87
  },
  {
    "name": "Contagious Laughter",
    "filename": "20201013-015219 laugh.mp3",
    "filesize": 296832,
    "duration": 18.55
  },
  {
    "name": "Oppai",
    "filename": "20210505-013729 oppai.mp3",
    "filesize": 140112,
    "duration": 9.11
  },
  {
    "name": "Fortune",
    "filename": "20210505-020700 fortune.mp3",
    "filesize": 46752,
    "duration": 2.43
  },
  {
    "name": "Ojou",
    "filename": "20210505-024538 ojou.mp3",
    "filesize": 35088,
    "duration": 1.81
  },
  {
    "name": "Destroy",
    "filename": "20210505-025008 destroy.mp3",
    "filesize": 36864,
    "duration": 1.76
  },
  {
    "name": "Big PP Energy",
    "filename": "20210517 003733 big pp energy.mp3",
    "filesize": 19765,
    "duration": 1.03
  },
  {
    "name": "deez nutz",
    "filename": "20210517 003734 deez nuts.mp3",
    "filesize": 30819,
    "duration": 1.74
  },
  {
    "name": "scream",
    "filename": "20210517 004409 scream.mp3",
    "filesize": 124788,
    "duration": 7.41
  },
  {
    "name": "pien",
    "filename": "20210517 012555 pien.mp3",
    "filesize": 21326,
    "duration": 1.25
  },
  {
    "name": "hi honey~",
    "filename": "20210517 012606 hi honey.mp3",
    "filesize": 16424,
    "duration": 0.96
  },
  {
    "name": "ligma",
    "filename": "20210517 014519 ligma.mp3",
    "filesize": 73582,
    "duration": 4.25
  },
  {
    "name": "giggle",
    "filename": "20210517 204225 giggle.mp3",
    "filesize": 21169,
    "duration": 1.21
  },
  {
    "name": "Again",
    "filename": "20210527 012155 again.wav",
    "filesize": 89880,
    "duration": 0.51
  },
  {
    "name": "Going Primal",
    "filename": "20210527 012155 going primal.wav",
    "filesize": 429992,
    "duration": 2.44
  },
  {
    "name": "Heavy Breathing",
    "filename": "20210527 012155 heavy breathing.wav",
    "filesize": 985072,
    "duration": 5.58
  },
  {
    "name": "iiieeeeeEEEE",
    "filename": "20210527 012155 iiieeeeeEEEE.mp3",
    "filesize": 47403,
    "duration": 2.73
  },
  {
    "name": "Massage parlor",
    "filename": "20210527 021250 purpose of a massage parlor.wav",
    "filesize": 1336728,
    "duration": 7.58
  },
  {
    "name": "To be a man",
    "filename": "20210527 030930 to be a man.wav",
    "filesize": 321548,
    "duration": 1.82
  },
  {
    "name": "Contagious Laughter 2",
    "filename": "20210527 031005 contagious laughter 2.wav",
    "filesize": 2706424,
    "duration": 15.34
  },
  {
    "name": "Hey Boy",
    "filename": "20210527 031005 hey boy.wav",
    "filesize": 324420,
    "duration": 1.84
  },
  {
    "name": "Hai Haaaai",
    "filename": "20210527 043140 hai haaaai.wav",
    "filesize": 1416356,
    "duration": 8.03
  },
  {
    "name": "Assassin",
    "filename": "20210602 010300 assassin.wav",
    "filesize": 266120,
    "duration": 1.51
  },
  {
    "name": "Tissues",
    "filename": "20210602 013425 tissues.wav",
    "filesize": 321836,
    "duration": 1.82
  },
  {
    "name": "Hurt",
    "filename": "20210720_011326_hurt.wav",
    "filesize": 220204,
    "duration": 1.25
  },
  {
    "name": "Toad",
    "filename": "ToadHana.mp3",
    "filesize": 190641,
    "duration": 11.9
  },
  {
    "name": "Toad Radio",
    "filename": "MoriohToadRadio.mp3",
    "filesize": 74715,
    "duration": 4.64
  },
  {
    "name": "Toad Good Morning",
    "filename": "GoodMorningMorioh.mp3",
    "filesize": 56367,
    "duration": 3.49
  },
  {
    "name": "Ara ara",
    "filename": "Hana_Macchia_ara_ara_money.mp3",
    "filesize": 81930,
    "duration": 3.05
  },
  {
    "name": "awokwokwok",
    "filename": "20220206 012225 awokwokwok.opus",
    "filesize": 38769,
    "duration": 2.5
  }
]
